{
  "__type__": "cc.AnimationClip",
  "_name": "Wave",
  "_objFlags": 0,
  "_native": "",
  "_duration": 1.0166666666666666,
  "sample": 60,
  "speed": 1,
  "wrapMode": 2,
  "curveData": {
    "comps": {
      "cc.Sprite": {
        "spriteFrame": [
          {
            "frame": 0,
            "value": {
              "__uuid__": "c62e8fab-e9a9-4eaa-b355-fe36b0ac7a9e"
            }
          },
          {
            "frame": 0.3333333333333333,
            "value": {
              "__uuid__": "89ec560d-f4af-4747-bd92-6c244b433de3"
            }
          },
          {
            "frame": 0.6666666666666666,
            "value": {
              "__uuid__": "6a11faf0-9c25-44aa-8de5-3f496661587d"
            }
          },
          {
            "frame": 1,
            "value": {
              "__uuid__": "de5f3c5e-3cf7-47b3-ba33-69919f41510a"
            }
          }
        ]
      }
    },
    "props": {
      "scaleY": [
        {
          "frame": 0,
          "value": 1.5
        }
      ],
      "opacity": [
        {
          "frame": 0,
          "value": 150
        }
      ]
    }
  },
  "events": []
}